%YAML 1.1
%TAG !u! tag:unity3d.com,2011:
--- !u!1045 &1
EditorBuildSettings:
  m_ObjectHideFlags: 0
  serializedVersion: 2
  m_Scenes:
  - enabled: 1
    path: Assets/Scenes/Menu.unity
    guid: adb4f09eed5314c469b6c7ae3c909220
  - enabled: 1
    path: Assets/Scenes/earth.unity
    guid: cd5dcc080709b624eb55fc0d1cd0bd7d
  - enabled: 1
    path: Assets/Scenes/moon.unity
    guid: 9bf9444440ca48e49b1ac1ed633e6365
